11949:
3.7
3.5
4.3
4
11948:
2.4
11944:
3.8
3.9
3.8
3.4
3.7
11935:
3.7
4.7
3.8
11934:
2.9
3.1
2.8
2.5
3.1
3
2.9
2.3
3.5
2.3
2.7
2.1
11932:
3.1
11614:
3.4
3.6
4.1
4
3.5
3.6
11613:
3.5
4.1
3.3
4
3.9
4.5
4.5
1006:
3.7
4.3
4.6
4.4
1121:
3.5
3
3.5
3.8
3.1
11609:
3.3
3.6
10058:
3.4
2.9
10056:
3.8
1.7
3.6
3.3
11206:
2.9
3.6
2.9
3
11947:
3.8
4
11618:
3.5
3.5
3.1
10067:
3.6
3.2
11608:
3.6
3.6
4
3.2
11933:
3.5
10053:
3.5
4
3.4
3.5
3.6
3.7
4.4
4
3.4
4.1
3.6
3.9
3.9
10006:
4
3.9
3.3
10043:
4.1
3.7
4.4
4.1
4.3
4.7
4.3
4.1
4.5
4.1
3.9
4.6
1004:
3
3.2
2.9
2.2
3.7
3.3
11946:
3.1
2.5
3.4
3.4
11617:
3
2.3
10066:
3
2.7
2.8
2.8
3.3
11612:
2.9
3.6
3.3
3.7
3.6
4.6
10061:
5
4.4
4.3
4.1
4.6
4.7
3.8
4.1
5
4
4.8
11945:
3
10065:
2.2
3.2
2.9
3.2
1001:
3
3.9
3.9
3.6
3
3.7
4.1
3.3
3.7
10072:
4.1
4.7
5
4.4
4.2
4.7
4.5
4.4
3.5
10044:
3.8
4.2
4.5
3.3
3.8
3.9
1161:
2.9
3.2
10059:
1.3
11610:
3.9
4
2.5
3.6
10013:
3.5
3.3
3.6
3.8
3.7
3.4
11611:
3.1
RMSE: 0.98
