235:
3.1
3.1
3.1
3.1
3.2
3.8
3.1
2350:
3.4
3.2
4.2
3.6
2.9
3.2
3.7
2.7
3.6
3.2
2.8
4.2
3.4
3.6
3.6
3.1
3.5
3.6
3.3
3.6
3.6
3.7
3.1
2.5
3.1
4.1
3.3
3.8
3.8
4.0
3.7
3.3
3.7
4.7
3.2
2351:
3.8
3.9
3.9
3.3
4.1
3.9
3.9
4.3
3.9
3.4
3.5
3.4
3.6
3.9
4.3
4.0
3.2
3.3
4.5
3.8
4.5
2352:
3.3
3.6
4.0
3.8
3.3
3.8
3.3
3.4
3.4
3.3
3.3
3.6
3.3
3.4
4.3
2.8
4.2
4.6
3.3
3.3
3.1
3.3
3.2
3.2
3.1
3.7
3.5
3.3
3.8
3.5
2353:
3.5
4.9
3.3
3.6
2354:
3.2
3.2
3.2
3.8
3.9
3.2
4.2
3.7
3.2
3.2
3.7
3.2
3.1
3.2
3.4
3.3
2.9
3.3
2355:
3.5
3.7
4.1
2356:
2.7
3.0
2.7
3.0
3.0
3.3
3.1
2.8
2.7
3.4
2.7
3.1
3.2
2.7
4.0
3.0
2.9
2.7
2.7
3.0
2.9
2.7
2.7
2.7
2.7
3.3
2.7
2.9
2.7
3.0
2357:
4.3
4.2
4.0
3.8
3.4
3.8
3.6
4.5
4.2
4.0
4.0
3.9
4.0
3.8
3.1
3.6
4.2
4.0
3.8
3.7
3.7
4.0
4.0
3.7
4.7
4.0
4.5
4.0
3.6
4.0
4.0
3.9
3.9
3.9
4.0
4.0
4.0
3.9
4.0
4.2
4.1
3.8
4.0
3.7
4.1
4.0
3.6
3.7
4.0
3.7
3.2
4.0
3.8
4.0
3.6
4635:
3.2
3.2
3.2
3.2
3.2
3.2
3.2
3.6
3.3
3.2
4.1
3.2
3.4
RMSE: 1.00
